{
	"entries": [
		{
			"name":"関数定義(JS)",
			"template":"(?<=function )<##>|<##>(?==function)",
			"flags":"31",
			"modes":["JavaScript"]
		},
		{
			"name":"変数定義(JS)",
			"template":"(?<=var )<##>",
			"flags":"31",
			"modes":["JavaScript"]
		},
		{
			"name":"行頭",
			"template":"^<##>",
			"flags":"31",
			"modes":[]
		},
		{
			"name":"行末",
			"template":"<##>$",
			"flags":"31",
			"modes":[]
		}
	]
}