{
	"entries": [
		{
			"name":"for",
			"comment":"forスニペット（カウンタも指定）",
			"template":"for(var {0:8-1,0:8}=0;{0:8-1,0:8}<{s}.length;{0:8-1,0:8}++){\n\t\n}",
			"indent":true,
			"modes":["JavaScript","C#","C++","Java"],
			"conditions":[
				{
					"type":14,
					"text":"for[ijk]$"
				}
			],
			"range":"0"
		},
		{
			"name":"block",
			"comment":"ブロックを作成",
			"template":"\n\t{0:7,0:8-1}{s}\n}",
			"indent":true,
			"modes":["JavaScript"],
			"conditions":[
				{
					"type":3,
					"text":"{"
				}
			],
			"range":"0"
		},
		{
			"name":"block",
			"comment":"ブロックを作成（キャレットより後に｝があれば利用する）",
			"template":"\n\t{0:8,1:8-1}{s}\n",
			"indent":true,
			"modes":["JavaScript"],
			"conditions":[
				{
					"type":3,
					"text":"{"
				},
				{
					"type":15,
					"text":"[^\\}]*\\}"
				}
			],
			"range":"0:8,1:8-1",
			"weight":1
		},
		{
			"name":"block comment",
			"comment":"ブロックコメント",
			"template":"\n* {4,6}{s}",
			"indent":true,
			"modes":["JavaScript"],
			"conditions":[
				{
					"type":14,
					"text":"^/?\\*"
				},
				{
					"type":-11,
					"text":"*/"
				}
			],
			"range":"4,6",
			"weight":1
		},
		{
			"name":"trim",
			"comment":"右トリム",
			"template":"",
			"conditions":[
				{
					"type":15,
					"text":"[\\s]+$",
					"spaces":true
				}
			],
			"range":"0"
		},
		{
			"name":"indent",
			"comment":"Python用インデント"
			"template":"\n\t",
			"indent":true,
			"modes":["Python"],
			"conditions":[
				{
					"type":3,
					"text":":"
				}
			]
		}
	],
	"sub":{
		"name":"sub",
		"comment":"一致するものが無ければ単純に改行する",
		"template":"\n"
	}
}