{
	"entries": [
		{
			"name":"block",
			"template":"\n\t{0:8,1:8-1}{s}\n",
			"indent":true,
			"modes":["JavaScript"],
			"conditions":[
				{
					"type":3,
					"text":"{"
				},
				{
					"type":15,
					"text":"[^\\}]*\\}"
				}
			],
			"range":"0:8,1:8-1",
			"weight":1
		},
		{
			"name":"block",
			"template":"{\n\t{0:6,0:8}{s}\n}",
			"indent":true,
			"modes":["JavaScript"],
			"conditions":[
				{
					"type":3,
					"text":"{"
				}
			],
			"range":"0,6"
		},
		{
			"name":"line comment",
			"template":"\n//{4,6}{s}",
			"indent":true,
			"modes":["JavaScript"],
			"conditions":[
				{
					"type":1,
					"text":"//"
				}
			],
			"range":"4,6",
			"weight":1
		},
		{
			"name":"block comment",
			"template":"\n* {4,6}{s}",
			"indent":true,
			"modes":["JavaScript"],
			"conditions":[
				{
					"type":14,
					"text":"^/?\\*"
				},
				{
					"type":-11,
					"text":"*/"
				}
			],
			"range":"4,6",
			"weight":1
		},
		{
			"name":"python indent",
			"template":"\n\t",
			"indent":true,
			"modes":["Python"],
			"conditions":[
				{
					"type":3,
					"text":":"
				}
			]
		},
		{
			"name":"python comment",
			"template":"\n#{4,6}{s}",
			"indent":true,
			"modes":["Python"],
			"conditions":[
				{
					"type":1,
					"text":"#"
				}
			],
			"range":"4,6"
		}
	],
	"sub":{
		"name":"sub",
		"template":"\n"
	}
}