{
	"BAT": {
		"comment": [
			"rem",
			"::"
		]
	},
	"COLDFUSION": {
		"comment": [
			"//"
		]
	},
	"DELPHI": {
		"comment": [
			"//"
		]
	},
	"HSP": {
		"comment": [
			";"
		]
	},
	"INI": {
		"comment": [
			";",
			"#"
		]
	},
	"JAVASCRIPT": {
		"comment": [
			"//",
			"* "
		],
		"bracket": {
			"{": "}",
			"/*": "*/"
		}
	},
	"PERL": {
		"comment": [
			"#"
		],
		"bracket": {
			"{": "}"
		}
	},
	"PHP": {
		"comment": [
			"//",
			"#"
		]
	},
	"POWERSHELL": {
		"comment": [
			"#"
		]
	},
	"PYTHON": {
		"comment": [
			"#"
		]
	},
	"RUBY": {
		"comment": [
			"#"
		]
	},
	"SQL": {
		"comment": [
			"--"
		]
	},
	"TEX": {
		"comment": [
			"%"
		]
	},
	"UWSC": {
		"comment": [
			"//"
		]
	},
	"VBSCRIPT": {
		"comment": [
			"'"
		]
	},
	"VISUALBASIC": {
		"comment": [
			"'"
		]
	},
	"X86 ASSEMBLER": {
		"comment": [
			";"
		]
	},
	"DEFAULT": {
		"comment": [
			"//"
		],
		"bracket": {
			"{": "}"
		}
	}
}